{
	"path": "sprites/boxes.png",
	"sprites":
	[
		{
			"name": "large_box",
			"wpxl": 32,
			"hpxl": 32,
			"step":
			[
				{
					"xpos": 0,
					"ypos": 0
				}
			]
		},
		{
			"name": "small_box",
			"wpxl": 16,
			"hpxl": 16,
			"step":
			[
				{
					"xpos": 32,
					"ypos": 0
				}
			]
		},
		{
			"name": "rock_box",
			"wpxl": 16,
			"hpxl": 16,
			"step":
			[
				{
					"xpos": 32,
					"ypos": 16
				}
			]
		}
	]
}